[{
  "id": 1,
  "email": {
    "from": "hwilletts0@google.com",
    "to": "ljimenez0@barnesandnoble.com",
    "subject": "lacus at turpis donec posuere",
    "message": "Quisque ut erat. Curabitur gravida nisi at nibh. In hac habitasse platea dictumst. Aliquam augue quam, sollicitudin vitae, consectetuer eget, rutrum at, lorem. Integer tincidunt ante vel ipsum. Praesent blandit lacinia erat. Vestibulum sed magna at nunc commodo placerat."
  }
}, {
  "id": 2,
  "email": {
    "from": "gmcgowan1@mapy.cz",
    "to": "astrathern1@ow.ly",
    "subject": "eros vestibulum ac est lacinia",
    "message": "Nunc rhoncus dui vel sem. Sed sagittis. Nam congue, risus semper porta volutpat, quam pede lobortis ligula, sit amet eleifend pede libero quis orci. Nullam molestie nibh in lectus. Pellentesque at nulla. Suspendisse potenti. Cras in purus eu magna vulputate luctus. Cum sociis natoque penatibus et magnis dis parturient montes, nascetur ridiculus mus."
  }
}, {
  "id": 3,
  "email": {
    "from": "bhurdis2@ibm.com",
    "to": "fsemken2@ihg.com",
    "subject": "ultrices posuere cubilia curae",
    "message": "Aliquam erat volutpat. In congue. Etiam justo."
  }
}, {
  "id": 4,
  "email": {
    "from": "finker3@pagesperso-orange.fr",
    "to": "cpevie3@com.com",
    "subject": "proin at turpis",
    "message": "Nulla mollis molestie lorem. Quisque ut erat. Curabitur gravida nisi at nibh. In hac habitasse platea dictumst. Aliquam augue quam, sollicitudin vitae, consectetuer eget, rutrum at, lorem. Integer tincidunt ante vel ipsum."
  }
}, {
  "id": 5,
  "email": {
    "from": "npage4@microsoft.com",
    "to": "cmaccartan4@reddit.com",
    "subject": "non mauris morbi non lectus",
    "message": "Donec odio justo, sollicitudin ut, suscipit a, feugiat et, eros. Vestibulum ac est lacinia nisi venenatis tristique. Fusce congue, diam id ornare imperdiet, sapien urna pretium nisl, ut volutpat sapien arcu sed augue. Aliquam erat volutpat. In congue. Etiam justo. Etiam pretium iaculis justo."
  }
}, {
  "id": 6,
  "email": {
    "from": "nsincock5@census.gov",
    "to": "kmoehler5@va.gov",
    "subject": "vehicula consequat morbi",
    "message": "Vestibulum sed magna at nunc commodo placerat. Praesent blandit. Nam nulla. Integer pede justo, lacinia eget, tincidunt eget, tempus vel, pede. Morbi porttitor lorem id ligula."
  }
}, {
  "id": 7,
  "email": {
    "from": "mdimmock6@latimes.com",
    "to": "eedds6@wikia.com",
    "subject": "malesuada in",
    "message": "Suspendisse potenti. In eleifend quam a odio. In hac habitasse platea dictumst. Maecenas ut massa quis augue luctus tincidunt. Nulla mollis molestie lorem. Quisque ut erat. Curabitur gravida nisi at nibh. In hac habitasse platea dictumst."
  }
}, {
  "id": 8,
  "email": {
    "from": "rwhitehorn7@merriam-webster.com",
    "to": "gpatershall7@ustream.tv",
    "subject": "cras non velit",
    "message": "Etiam pretium iaculis justo. In hac habitasse platea dictumst. Etiam faucibus cursus urna. Ut tellus. Nulla ut erat id mauris vulputate elementum."
  }
}, {
  "id": 9,
  "email": {
    "from": "groze8@newyorker.com",
    "to": "srickson8@examiner.com",
    "subject": "eget vulputate ut",
    "message": "Maecenas pulvinar lobortis est. Phasellus sit amet erat. Nulla tempus. Vivamus in felis eu sapien cursus vestibulum. Proin eu mi."
  }
}, {
  "id": 10,
  "email": {
    "from": "zpohls9@usnews.com",
    "to": "ldunridge9@oaic.gov.au",
    "subject": "id ornare",
    "message": "Cum sociis natoque penatibus et magnis dis parturient montes, nascetur ridiculus mus. Vivamus vestibulum sagittis sapien. Cum sociis natoque penatibus et magnis dis parturient montes, nascetur ridiculus mus. Etiam vel augue. Vestibulum rutrum rutrum neque. Aenean auctor gravida sem."
  }
}, {
  "id": 11,
  "email": {
    "from": "hpierria@cbc.ca",
    "to": "wmcnultya@hostgator.com",
    "subject": "vestibulum quam sapien",
    "message": "Nulla facilisi. Cras non velit nec nisi vulputate nonummy. Maecenas tincidunt lacus at velit. Vivamus vel nulla eget eros elementum pellentesque. Quisque porta volutpat erat. Quisque erat eros, viverra eget, congue eget, semper rutrum, nulla. Nunc purus. Phasellus in felis. Donec semper sapien a libero. Nam dui."
  }
}, {
  "id": 12,
  "email": {
    "from": "dmurfinb@facebook.com",
    "to": "eglisonb@vkontakte.ru",
    "subject": "quis libero",
    "message": "Sed sagittis. Nam congue, risus semper porta volutpat, quam pede lobortis ligula, sit amet eleifend pede libero quis orci. Nullam molestie nibh in lectus. Pellentesque at nulla. Suspendisse potenti."
  }
}, {
  "id": 13,
  "email": {
    "from": "geyrlc@etsy.com",
    "to": "fburttc@mediafire.com",
    "subject": "vel ipsum",
    "message": "Etiam faucibus cursus urna. Ut tellus. Nulla ut erat id mauris vulputate elementum. Nullam varius. Nulla facilisi. Cras non velit nec nisi vulputate nonummy. Maecenas tincidunt lacus at velit."
  }
}, {
  "id": 14,
  "email": {
    "from": "aedgsond@bandcamp.com",
    "to": "bgoldwaterd@simplemachines.org",
    "subject": "odio elementum eu interdum",
    "message": "Nulla ut erat id mauris vulputate elementum. Nullam varius. Nulla facilisi. Cras non velit nec nisi vulputate nonummy. Maecenas tincidunt lacus at velit."
  }
}, {
  "id": 15,
  "email": {
    "from": "scowlase@yahoo.co.jp",
    "to": "aparkee@utexas.edu",
    "subject": "odio porttitor id",
    "message": "Sed ante. Vivamus tortor. Duis mattis egestas metus. Aenean fermentum. Donec ut mauris eget massa tempor convallis. Nulla neque libero, convallis eget, eleifend luctus, ultricies eu, nibh. Quisque id justo sit amet sapien dignissim vestibulum."
  }
}, {
  "id": 16,
  "email": {
    "from": "awellf@tuttocitta.it",
    "to": "droistonef@admin.ch",
    "subject": "sed augue aliquam erat volutpat",
    "message": "Suspendisse ornare consequat lectus. In est risus, auctor sed, tristique in, tempus sit amet, sem. Fusce consequat. Nulla nisl. Nunc nisl. Duis bibendum, felis sed interdum venenatis, turpis enim blandit mi, in porttitor pede justo eu massa. Donec dapibus."
  }
}, {
  "id": 17,
  "email": {
    "from": "rshillingtong@newyorker.com",
    "to": "lmcmurtyrg@mapquest.com",
    "subject": "adipiscing lorem",
    "message": "Maecenas tincidunt lacus at velit. Vivamus vel nulla eget eros elementum pellentesque. Quisque porta volutpat erat. Quisque erat eros, viverra eget, congue eget, semper rutrum, nulla."
  }
}, {
  "id": 18,
  "email": {
    "from": "bstealfoxh@google.co.jp",
    "to": "pspaxmanh@nhs.uk",
    "subject": "pede libero quis",
    "message": "Aenean fermentum. Donec ut mauris eget massa tempor convallis. Nulla neque libero, convallis eget, eleifend luctus, ultricies eu, nibh. Quisque id justo sit amet sapien dignissim vestibulum. Vestibulum ante ipsum primis in faucibus orci luctus et ultrices posuere cubilia Curae; Nulla dapibus dolor vel est. Donec odio justo, sollicitudin ut, suscipit a, feugiat et, eros. Vestibulum ac est lacinia nisi venenatis tristique. Fusce congue, diam id ornare imperdiet, sapien urna pretium nisl, ut volutpat sapien arcu sed augue. Aliquam erat volutpat. In congue."
  }
}, {
  "id": 19,
  "email": {
    "from": "ppridmorei@blogtalkradio.com",
    "to": "csineyi@biglobe.ne.jp",
    "subject": "odio condimentum id",
    "message": "Quisque erat eros, viverra eget, congue eget, semper rutrum, nulla. Nunc purus. Phasellus in felis. Donec semper sapien a libero."
  }
}, {
  "id": 20,
  "email": {
    "from": "ahairj@de.vu",
    "to": "ublackboroughj@craigslist.org",
    "subject": "natoque penatibus et magnis",
    "message": "Vestibulum ante ipsum primis in faucibus orci luctus et ultrices posuere cubilia Curae; Nulla dapibus dolor vel est. Donec odio justo, sollicitudin ut, suscipit a, feugiat et, eros. Vestibulum ac est lacinia nisi venenatis tristique. Fusce congue, diam id ornare imperdiet, sapien urna pretium nisl, ut volutpat sapien arcu sed augue. Aliquam erat volutpat. In congue. Etiam justo."
  }
}, {
  "id": 21,
  "email": {
    "from": "bprestneyk@loc.gov",
    "to": "thullotk@squidoo.com",
    "subject": "amet sem fusce consequat",
    "message": "Integer aliquet, massa id lobortis convallis, tortor risus dapibus augue, vel accumsan tellus nisi eu orci. Mauris lacinia sapien quis libero. Nullam sit amet turpis elementum ligula vehicula consequat. Morbi a ipsum. Integer a nibh."
  }
}, {
  "id": 22,
  "email": {
    "from": "apottl@linkedin.com",
    "to": "mmattonl@pagesperso-orange.fr",
    "subject": "diam id",
    "message": "Fusce lacus purus, aliquet at, feugiat non, pretium quis, lectus. Suspendisse potenti. In eleifend quam a odio. In hac habitasse platea dictumst. Maecenas ut massa quis augue luctus tincidunt."
  }
}, {
  "id": 23,
  "email": {
    "from": "lcorlettm@hostgator.com",
    "to": "sparzism@quantcast.com",
    "subject": "accumsan felis ut",
    "message": "Proin interdum mauris non ligula pellentesque ultrices. Phasellus id sapien in sapien iaculis congue. Vivamus metus arcu, adipiscing molestie, hendrerit at, vulputate vitae, nisl. Aenean lectus. Pellentesque eget nunc. Donec quis orci eget orci vehicula condimentum. Curabitur in libero ut massa volutpat convallis. Morbi odio odio, elementum eu, interdum eu, tincidunt in, leo."
  }
}, {
  "id": 24,
  "email": {
    "from": "crudyardn@hatena.ne.jp",
    "to": "dsorbyn@liveinternet.ru",
    "subject": "nisi volutpat",
    "message": "Pellentesque ultrices mattis odio. Donec vitae nisi. Nam ultrices, libero non mattis pulvinar, nulla pede ullamcorper augue, a suscipit nulla elit ac nulla. Sed vel enim sit amet nunc viverra dapibus. Nulla suscipit ligula in lacus. Curabitur at ipsum ac tellus semper interdum. Mauris ullamcorper purus sit amet nulla. Quisque arcu libero, rutrum ac, lobortis vel, dapibus at, diam."
  }
}, {
  "id": 25,
  "email": {
    "from": "lconneauo@ocn.ne.jp",
    "to": "escaysbrooko@dagondesign.com",
    "subject": "in tempus sit amet sem",
    "message": "Quisque ut erat. Curabitur gravida nisi at nibh. In hac habitasse platea dictumst. Aliquam augue quam, sollicitudin vitae, consectetuer eget, rutrum at, lorem. Integer tincidunt ante vel ipsum. Praesent blandit lacinia erat. Vestibulum sed magna at nunc commodo placerat. Praesent blandit. Nam nulla. Integer pede justo, lacinia eget, tincidunt eget, tempus vel, pede."
  }
}, {
  "id": 26,
  "email": {
    "from": "qstubbingtonp@github.com",
    "to": "lkortingp@360.cn",
    "subject": "pretium quis lectus suspendisse potenti",
    "message": "Duis consequat dui nec nisi volutpat eleifend. Donec ut dolor. Morbi vel lectus in quam fringilla rhoncus."
  }
}, {
  "id": 27,
  "email": {
    "from": "elavielleq@hexun.com",
    "to": "mbirdsallq@moonfruit.com",
    "subject": "mi nulla ac enim",
    "message": "Duis ac nibh. Fusce lacus purus, aliquet at, feugiat non, pretium quis, lectus. Suspendisse potenti."
  }
}, {
  "id": 28,
  "email": {
    "from": "gfurmanr@acquirethisname.com",
    "to": "wknotter@storify.com",
    "subject": "mauris vulputate elementum nullam",
    "message": "Lorem ipsum dolor sit amet, consectetuer adipiscing elit. Proin interdum mauris non ligula pellentesque ultrices. Phasellus id sapien in sapien iaculis congue. Vivamus metus arcu, adipiscing molestie, hendrerit at, vulputate vitae, nisl. Aenean lectus."
  }
}, {
  "id": 29,
  "email": {
    "from": "cgagies@comcast.net",
    "to": "ckillwicks@biglobe.ne.jp",
    "subject": "felis ut at",
    "message": "Donec semper sapien a libero. Nam dui. Proin leo odio, porttitor id, consequat in, consequat ut, nulla. Sed accumsan felis."
  }
}, {
  "id": 30,
  "email": {
    "from": "ccarniet@disqus.com",
    "to": "nbodycombt@bandcamp.com",
    "subject": "pulvinar lobortis est",
    "message": "Pellentesque ultrices mattis odio. Donec vitae nisi. Nam ultrices, libero non mattis pulvinar, nulla pede ullamcorper augue, a suscipit nulla elit ac nulla. Sed vel enim sit amet nunc viverra dapibus. Nulla suscipit ligula in lacus. Curabitur at ipsum ac tellus semper interdum. Mauris ullamcorper purus sit amet nulla. Quisque arcu libero, rutrum ac, lobortis vel, dapibus at, diam."
  }
}, {
  "id": 31,
  "email": {
    "from": "jgiannazzou@scribd.com",
    "to": "klemanuu@theglobeandmail.com",
    "subject": "vestibulum aliquet ultrices erat tortor",
    "message": "Maecenas ut massa quis augue luctus tincidunt. Nulla mollis molestie lorem. Quisque ut erat."
  }
}, {
  "id": 32,
  "email": {
    "from": "trosedalev@shinystat.com",
    "to": "poronanv@unicef.org",
    "subject": "praesent blandit",
    "message": "Maecenas pulvinar lobortis est. Phasellus sit amet erat. Nulla tempus. Vivamus in felis eu sapien cursus vestibulum. Proin eu mi."
  }
}, {
  "id": 33,
  "email": {
    "from": "jtussainew@hexun.com",
    "to": "mhestropw@statcounter.com",
    "subject": "et ultrices posuere",
    "message": "Nunc nisl. Duis bibendum, felis sed interdum venenatis, turpis enim blandit mi, in porttitor pede justo eu massa. Donec dapibus. Duis at velit eu est congue elementum. In hac habitasse platea dictumst. Morbi vestibulum, velit id pretium iaculis, diam erat fermentum justo, nec condimentum neque sapien placerat ante."
  }
}, {
  "id": 34,
  "email": {
    "from": "jthowlessx@examiner.com",
    "to": "kharnessx@eventbrite.com",
    "subject": "at lorem integer tincidunt ante",
    "message": "Donec ut dolor. Morbi vel lectus in quam fringilla rhoncus. Mauris enim leo, rhoncus sed, vestibulum sit amet, cursus id, turpis. Integer aliquet, massa id lobortis convallis, tortor risus dapibus augue, vel accumsan tellus nisi eu orci. Mauris lacinia sapien quis libero. Nullam sit amet turpis elementum ligula vehicula consequat."
  }
}, {
  "id": 35,
  "email": {
    "from": "hbraveyy@quantcast.com",
    "to": "aaleshkovy@ted.com",
    "subject": "pede posuere nonummy integer non",
    "message": "Vivamus in felis eu sapien cursus vestibulum. Proin eu mi. Nulla ac enim. In tempor, turpis nec euismod scelerisque, quam turpis adipiscing lorem, vitae mattis nibh ligula nec sem. Duis aliquam convallis nunc. Proin at turpis a pede posuere nonummy. Integer non velit."
  }
}, {
  "id": 36,
  "email": {
    "from": "emacdonaghz@mozilla.org",
    "to": "kjamesonz@quantcast.com",
    "subject": "tortor risus dapibus augue",
    "message": "Integer ac neque. Duis bibendum. Morbi non quam nec dui luctus rutrum. Nulla tellus. In sagittis dui vel nisl. Duis ac nibh. Fusce lacus purus, aliquet at, feugiat non, pretium quis, lectus. Suspendisse potenti."
  }
}, {
  "id": 37,
  "email": {
    "from": "twiltsher10@mozilla.com",
    "to": "dsmissen10@nymag.com",
    "subject": "semper interdum mauris ullamcorper purus",
    "message": "In blandit ultrices enim. Lorem ipsum dolor sit amet, consectetuer adipiscing elit. Proin interdum mauris non ligula pellentesque ultrices. Phasellus id sapien in sapien iaculis congue. Vivamus metus arcu, adipiscing molestie, hendrerit at, vulputate vitae, nisl. Aenean lectus. Pellentesque eget nunc."
  }
}, {
  "id": 38,
  "email": {
    "from": "epetts11@si.edu",
    "to": "cgebhard11@domainmarket.com",
    "subject": "vulputate justo",
    "message": "Proin risus. Praesent lectus. Vestibulum quam sapien, varius ut, blandit non, interdum in, ante. Vestibulum ante ipsum primis in faucibus orci luctus et ultrices posuere cubilia Curae; Duis faucibus accumsan odio. Curabitur convallis. Duis consequat dui nec nisi volutpat eleifend. Donec ut dolor. Morbi vel lectus in quam fringilla rhoncus."
  }
}, {
  "id": 39,
  "email": {
    "from": "pcheevers12@dagondesign.com",
    "to": "sfalla12@lulu.com",
    "subject": "arcu adipiscing molestie hendrerit",
    "message": "Donec semper sapien a libero. Nam dui. Proin leo odio, porttitor id, consequat in, consequat ut, nulla. Sed accumsan felis. Ut at dolor quis odio consequat varius. Integer ac leo."
  }
}, {
  "id": 40,
  "email": {
    "from": "rkeyworth13@alibaba.com",
    "to": "cluton13@twitter.com",
    "subject": "molestie lorem quisque ut erat",
    "message": "Suspendisse accumsan tortor quis turpis. Sed ante. Vivamus tortor. Duis mattis egestas metus. Aenean fermentum. Donec ut mauris eget massa tempor convallis. Nulla neque libero, convallis eget, eleifend luctus, ultricies eu, nibh. Quisque id justo sit amet sapien dignissim vestibulum."
  }
}]